<?xml version="1.0" encoding="utf-8"?>
<!-- Generator: Adobe Illustrator 22.0.0, SVG Export Plug-In . SVG Version: 6.00 Build 0)  -->
<svg version="1.1" id="Layer_1" xmlns="http://www.w3.org/2000/svg" xmlns:xlink="http://www.w3.org/1999/xlink" x="0px" y="0px"
	 viewBox="0 0 150.3 69.7" style="enable-background:new 0 0 150.3 69.7;" xml:space="preserve">
<style type="text/css">
	.st0{fill:#FFFFFF;}
	.st1{fill:#399AD5;}
</style>
<path class="st0" d="M16.8,58.6L16.8,58.6c-3.4,0-6.2-2.8-6.2-6.2V15.5c0-3.4,2.8-6.2,6.2-6.2h0c3.4,0,6.2,2.8,6.2,6.2v36.9
	C23,55.9,20.3,58.6,16.8,58.6z"/>
<path class="st0" d="M57.2,9.4c-13.6,0-24.6,11-24.6,24.6c0,13.6,11,24.6,24.6,24.6c13.6,0,24.6-11,24.6-24.6
	C81.8,20.4,70.7,9.4,57.2,9.4z M57.2,46.2c-6.8,0-12.2-5.5-12.2-12.2s5.5-12.2,12.2-12.2S69.4,27.2,69.4,34S63.9,46.2,57.2,46.2z"/>
<path class="st0" d="M128.5,12.9c-3.7-2.2-8.1-3.5-12.7-3.5c-4.6,0-9,1.3-12.7,3.5C95.9,17.2,91.2,25,91.2,34v18.5
	c0,3.4,2.8,6.2,6.2,6.2h0c2.5,0,4.7-1.5,5.7-3.6c0.4-0.8,0.6-1.7,0.6-2.6V35.6v-3.2c0.8-6,5.9-10.7,12.1-10.7
	c6.2,0,11.4,4.6,12.1,10.7v3.2v16.9c0,0.9,0.2,1.8,0.6,2.6c1,2.1,3.1,3.6,5.7,3.6h0c3.4,0,6.2-2.8,6.2-6.2V34
	C140.3,25,135.6,17.2,128.5,12.9z"/>
<path class="st1" d="M16.8,34L16.8,34c-1.5,0-2.7-1.2-2.7-2.7V17.1c0-1.5,1.2-2.7,2.7-2.7h0c1.5,0,2.7,1.2,2.7,2.7v14.1
	C19.5,32.7,18.3,34,16.8,34z"/>
</svg>
