<svg width="100" height="100" viewBox="0 0 100 100" fill="none" xmlns="http://www.w3.org/2000/svg">
<rect x="10" y="16" width="81" height="67" rx="5" fill="#67C4E1"/>
<rect x="24" y="44" width="46" height="5" fill="white"/>
<rect x="24" y="51" width="23" height="4" fill="#E3E3E3"/>
</svg>
